{
  "project_info": {
    "project_number": "30642986528",
    "firebase_url": "https://bridgelinx-client.firebaseio.com",
    "project_id": "bridgelinx-client",
    "storage_bucket": "bridgelinx-client.appspot.com"
  },
  "client": [
    {
      "client_info": {
        "mobilesdk_app_id": "1:30642986528:android:a724cb502d52f09c93a645",
        "android_client_info": {
          "package_name": "com.weoveri.bridgelinx"
        }
      },
      "oauth_client": [
        {
          "client_id": "30642986528-dfd58im233od890spmu348mvtjdgnu9u.apps.googleusercontent.com",
          "client_type": 1,
          "android_info": {
            "package_name": "com.weoveri.bridgelinx",
            "certificate_hash": "715ed4e66e071a4e609b2de32873e439646d6e0b"
          }
        },
        {
          "client_id": "30642986528-qj1b2foj113r9b0ld6plu874djpn8ebt.apps.googleusercontent.com",
          "client_type": 3
        }
      ],
      "api_key": [
        {
          "current_key": "AIzaSyDwgIh3S-9c1LMNGLz92xURMUTIQQ6vKyA"
        }
      ],
      "services": {
        "appinvite_service": {
          "other_platform_oauth_client": [
            {
              "client_id": "30642986528-qj1b2foj113r9b0ld6plu874djpn8ebt.apps.googleusercontent.com",
              "client_type": 3
            }
          ]
        }
      }
    },
    {
      "client_info": {
        "mobilesdk_app_id": "1:30642986528:android:1eb375f746a4c02393a645",
        "android_client_info": {
          "package_name": "com.weoveri.bridgelinx_driver"
        }
      },
      "oauth_client": [
        {
          "client_id": "30642986528-rgqhis0jmiegj03gvlida02qnv1i49ep.apps.googleusercontent.com",
          "client_type": 1,
          "android_info": {
            "package_name": "com.weoveri.bridgelinx_driver",
            "certificate_hash": "421b0a227e7c26a67312be8d386c7f438a8da284"
          }
        },
        {
          "client_id": "30642986528-f301401hng8hna7uvoddi5stg5e3jm98.apps.googleusercontent.com",
          "client_type": 1,
          "android_info": {
            "package_name": "com.weoveri.bridgelinx_driver",
            "certificate_hash": "49989c5d6fbd2f23ad1aa7d908ce99606f93ad1c"
          }
        },
        {
          "client_id": "30642986528-qj1b2foj113r9b0ld6plu874djpn8ebt.apps.googleusercontent.com",
          "client_type": 3
        }
      ],
      "api_key": [
        {
          "current_key": "AIzaSyDwgIh3S-9c1LMNGLz92xURMUTIQQ6vKyA"
        }
      ],
      "services": {
        "appinvite_service": {
          "other_platform_oauth_client": [
            {
              "client_id": "30642986528-qj1b2foj113r9b0ld6plu874djpn8ebt.apps.googleusercontent.com",
              "client_type": 3
            }
          ]
        }
      }
    }
  ],
  "configuration_version": "1"
}